{
  "description": "Example API responses for infinite scroll",
  
  "first_page_request": {
    "url": "GET /api/events?limit=12&offset=0&sort=date&status=published",
    "response": {
      "success": true,
      "count": 12,
      "total": 45,
      "offset": 0,
      "limit": 12,
      "hasMore": true,
      "data": [
        {
          "_id": "67301a2f4b8c9d001e5f2a3b",
          "title": "Pattaya Beach Music Festival 2025",
          "description": "Join us for the biggest beach music festival...",
          "date": "2025-12-15T18:00:00.000Z",
          "time": "18:00",
          "location": "Beach Road",
          "type": "concert",
          "price": 1500,
          "priceCategory": "moderate",
          "images": ["https://..."],
          "views": 1250,
          "featured": true,
          "status": "published"
        }
      ]
    }
  },
  
  "second_page_request": {
    "url": "GET /api/events?limit=12&offset=12&sort=date&status=published",
    "response": {
      "success": true,
      "count": 12,
      "total": 45,
      "offset": 12,
      "limit": 12,
      "hasMore": true,
      "data": []
    }
  },
  
  "auto_refresh_check": {
    "url": "GET /api/events?limit=1&sort=date&status=published",
    "response": {
      "success": true,
      "count": 1,
      "total": 46,
      "data": [
        {
          "_id": "67301xyz...",
          "title": "NEW EVENT - Loy Krathong Festival",
          "date": "2025-11-05T18:00:00.000Z"
        }
      ]
    }
  }
}